{
    "data": {
        "brand": {
            "name": "Banco Inter S.A.",
            "companies": [
                {
                    "name": "Banco Inter S.A.",
                    "cnpjNumber": "00416968000101",
                    "personalAccounts": [
                        {
                            "type": "CONTA_POUPANCA",
                            "fees": {
                                "priorityServices": [
                                    {
                                        "name": "CONFECCAO_CADASTRO_INICIO_RELACIONAMENTO",
                                        "code": "CADASTRO",
                                        "chargingTriggerInfo": "Realização de pesquisa em serviços de proteção ao crédito, base dedados e informações cadastrais, e tratamento de dados e informações necessários ao início de relacionamento decorrente da abertura de conta de depósitos à vista ou de poupança ou contratação de operações de crédito ou de arrendamento mercantil, não podendo ser cobrada cumulativamente.",
                                        "prices": [
                                            {
                                                "interval": "1_FAIXA",
                                                "value": "0.0000",
                                                "currency": "BRL",
                                                "customers": {
                                                    "rate": "0.95000"
                                                }
                                            },
                                            {
                                                "interval": "2_FAIXA",
                                                "value": "0.0000",
                                                "currency": "BRL",
                                                "customers": {
                                                    "rate": "0.0000"
                                                }
                                            },
                                            {
                                                "interval": "3_FAIXA",
                                                "value": "0.0000",
                                                "currency": "BRL",
                                                "customers": {
                                                    "rate": "0.0000"
                                                }
                                            },
                                            {
                                                "interval": "4_FAIXA",
                                                "value": "1500.0000",
                                                "currency": "BRL",
                                                "customers": {
                                                    "rate": "0.0500"
                                                }
                                            }
                                        ],
                                        "minimum": {
                                            "value": "0.0000",
                                            "currency": "BRL"
                                        },
                                        "maximum": {
                                            "value": "1500.0000",
                                            "currency": "BRL"
                                        }
                                    },
                                    {
                                        "name": "FORNECIMENTO_EXTRATO_MENSAL_CONTA_DEPOSITOS_A_VISTA_E_POUPANCA_TERMINAL_AUTOATENDIMENTO",
                                        "code": "EXTRATO_MES_E",
                                        "chargingTriggerInfo": "Fornecimento de extrato com a movimentação dos últimos trinta dias em terminal de autoatendimento ou por outras formas de atendimento eletrônico automatizado, sem intervenção humana, além do número permitido gratuitamente por mês. Nas 'contas eletrônicas' não pode ser cobrada tarifa para este canal de entrega.",
                                        "prices": [
                                            {
                                                "interval": "1_FAIXA",
                                                "value": "0.0000",
                                                "currency": "BRL",
                                                "customers": {
                                                    "rate": "0.9500"
                                                }
                                            },
                                            {
                                                "interval": "2_FAIXA",
                                                "value": "0.0000",
                                                "currency": "BRL",
                                                "customers": {
                                                    "rate": "0.0000"
                                                }
                                            },
                                            {
                                                "interval": "3_FAIXA",
                                                "value": "0.0000",
                                                "currency": "BRL",
                                                "customers": {
                                                    "rate": "0.0000"
                                                }
                                            },
                                            {
                                                "interval": "4_FAIXA",
                                                "value": "0.0000",
                                                "currency": "BRL",
                                                "customers": {
                                                    "rate": "0.0500"
                                                }
                                            }
                                        ],
                                        "minimum": {
                                            "value": "0.0000",
                                            "currency": "BRL"
                                        },
                                        "maximum": {
                                            "value": "0.0000",
                                            "currency": "BRL"
                                        }
                                    }
                                ],
                                "otherServices": [
                                    {
                                        "name": "Alteração de endereço",
                                        "code": "ALTERACAO_ENDERECO",
                                        "chargingTriggerInfo": "Por evento",
                                        "prices": [
                                            {
                                                "interval": "1_FAIXA",
                                                "value": "0.0000",
                                                "currency": "BRL",
                                                "customers": {
                                                    "rate": "0.9500"
                                                }
                                            },
                                            {
                                                "interval": "2_FAIXA",
                                                "value": "0.0000",
                                                "currency": "BRL",
                                                "customers": {
                                                    "rate": "0.0000"
                                                }
                                            },
                                            {
                                                "interval": "3_FAIXA",
                                                "value": "0.0000",
                                                "currency": "BRL",
                                                "customers": {
                                                    "rate": "0.0000"
                                                }
                                            },
                                            {
                                                "interval": "4_FAIXA",
                                                "value": "0.0000",
                                                "currency": "BRL",
                                                "customers": {
                                                    "rate": "0.0500"
                                                }
                                            }
                                        ],
                                        "minimum": {
                                            "value": "0.0000",
                                            "currency": "BRL"
                                        },
                                        "maximum": {
                                            "value": "0.0000",
                                            "currency": "BRL"
                                        }
                                    }
                                ]
                            },
                            "serviceBundles": [
                                {
                                    "name": "Pacote Conta Digital",
                                    "services": [
                                        {
                                            "code": "CADASTRO",
                                            "chargingTriggerInfo": "Realização de pesquisa em serviços de proteção ao crédito, base dedados e informações cadastrais, e tratamento de dados e informações necessários ao início de relacionamento decorrente da abertura de conta de depósitos à vista ou de poupança ou contratação de operações de crédito ou de arrendamento mercantil, não podendo ser cobrada cumulativamente.",
                                            "eventLimitQuantity": "1",
                                            "freeEventQuantity": "0"
                                        },
                                        {
                                            "code": "EXTRATO_MES_E",
                                            "chargingTriggerInfo": "Fornecimento de extrato com a movimentação dos últimos trinta dias em terminal de autoatendimento ou por outras formas de atendimento eletrônico automatizado, sem intervenção humana, além do número permitido gratuitamente por mês. Nas 'contas eletrônicas' não pode ser cobrada tarifa para este canal de entrega.",
                                            "eventLimitQuantity": "999999",
                                            "freeEventQuantity": "999999"
                                        }
                                    ],
                                    "prices": [
                                        {
                                            "interval": "1_FAIXA",
                                            "monthlyFee": "0.0000",
                                            "currency": "BRL",
                                            "customers": {
                                                "rate": "0.9500"
                                            }
                                        },
                                        {
                                            "interval": "2_FAIXA",
                                            "monthlyFee": "0.0000",
                                            "currency": "BRL",
                                            "customers": {
                                                "rate": "0.0000"
                                            }
                                        },
                                        {
                                            "interval": "3_FAIXA",
                                            "monthlyFee": "0.0000",
                                            "currency": "BRL",
                                            "customers": {
                                                "rate": "0.0000"
                                            }
                                        },
                                        {
                                            "interval": "4_FAIXA",
                                            "monthlyFee": "0.0000",
                                            "currency": "BRL",
                                            "customers": {
                                                "rate": "0.0500"
                                            }
                                        }
                                    ],
                                    "minimum": {
                                        "value": "0.0000",
                                        "currency": "BRL"
                                    },
                                    "maximum": {
                                        "value": "0.0000",
                                        "currency": "BRL"
                                    }
                                },
                                {
                                    "name": "Conta de depósitos à vista - Pacote Padronizado I",
                                    "services": [
                                        {
                                            "code": "EXTRATO_MES_E",
                                            "chargingTriggerInfo": "Fornecimento de extrato com a movimentação dos últimos trinta dias em terminal de autoatendimento ou por outras formas de atendimento eletrônico automatizado, sem intervenção humana, além do número permitido gratuitamente por mês. Nas 'contas eletrônicas' não pode ser cobrada tarifa para este canal de entrega.",
                                            "eventLimitQuantity": "999999",
                                            "freeEventQuantity": "4"
                                        }
                                    ],
                                    "prices": [
                                        {
                                            "interval": "1_FAIXA",
                                            "monthlyFee": "0.0000",
                                            "currency": "BRL",
                                            "customers": {
                                                "rate": "0.9500"
                                            }
                                        },
                                        {
                                            "interval": "2_FAIXA",
                                            "monthlyFee": "0.0000",
                                            "currency": "BRL",
                                            "customers": {
                                                "rate": "0.0000"
                                            }
                                        },
                                        {
                                            "interval": "3_FAIXA",
                                            "monthlyFee": "0.0000",
                                            "currency": "BRL",
                                            "customers": {
                                                "rate": "0.0000"
                                            }
                                        },
                                        {
                                            "interval": "4_FAIXA",
                                            "monthlyFee": "0.0000",
                                            "currency": "BRL",
                                            "customers": {
                                                "rate": "0.0500"
                                            }
                                        }
                                    ],
                                    "minimum": {
                                        "value": "0.0000",
                                        "currency": "BRL"
                                    },
                                    "maximum": {
                                        "value": "0.0000",
                                        "currency": "BRL"
                                    }
                                },
                                {
                                    "name": "Conta de depósitos à vista - Pacote Padronizado II",
                                    "services": [
                                        {
                                            "code": "EXTRATO_MES_E",
                                            "chargingTriggerInfo": "Fornecimento de extrato com a movimentação dos últimos trinta dias em terminal de autoatendimento ou por outras formas de atendimento eletrônico automatizado, sem intervenção humana, além do número permitido gratuitamente por mês. Nas 'contas eletrônicas' não pode ser cobrada tarifa para este canal de entrega.",
                                            "eventLimitQuantity": "999999",
                                            "freeEventQuantity": "6"
                                        }
                                    ],
                                    "prices": [
                                        {
                                            "interval": "1_FAIXA",
                                            "monthlyFee": "0.0000",
                                            "currency": "BRL",
                                            "customers": {
                                                "rate": "0.9500"
                                            }
                                        },
                                        {
                                            "interval": "2_FAIXA",
                                            "monthlyFee": "0.0000",
                                            "currency": "BRL",
                                            "customers": {
                                                "rate": "0.0000"
                                            }
                                        },
                                        {
                                            "interval": "3_FAIXA",
                                            "monthlyFee": "0.0000",
                                            "currency": "BRL",
                                            "customers": {
                                                "rate": "0.0000"
                                            }
                                        },
                                        {
                                            "interval": "4_FAIXA",
                                            "monthlyFee": "0.0000",
                                            "currency": "BRL",
                                            "customers": {
                                                "rate": "0.0500"
                                            }
                                        }
                                    ],
                                    "minimum": {
                                        "value": "0.0000",
                                        "currency": "BRL"
                                    },
                                    "maximum": {
                                        "value": "0.0000",
                                        "currency": "BRL"
                                    }
                                }
                            ],
                            "openingClosingChannels": [
                                "DEPENDENCIAS_PROPRIAS",
                                "INTERNET_BANKING",
                                "MOBILE_BANKING",
                                "CENTRAL_TELEFONICA",
                                "CHAT",
                                "OUTROS"
                            ],
                            "additionalInfo": "Redes sociais, SAC e ouvidoria",
                            "transactionMethods": [
                                "MOVIMENTACAO_ELETRONICA"
                            ],
                            "termsConditions": {
                                "minimumBalance": {
                                    "value": "0.0000",
                                    "currency": "BRL"
                                },
                                "elegibilityCriteriaInfo": "https://www.bancointer.com.br/pra-voce/conta-digital/pessoa-fisica/",
                                "closingProcessInfo": "https://ajuda.bancointer.com.br/pt-BR/articles/4028881-como-solicito-o-encerramento-da-minha-conta"
                            },
                            "incomeRate": [
                                {
                                    "savingAccount": "Caso a Selic seja definida abaixo de 8,5% a.a., como atualmente, o rendimento será equivalente a 70% da Selic. Assim, como a Selic está em 6,5% a.a. a rentabilidade anual é da poupança seria de 4,55% a.a. ou 0,37% a.m. Mas se a taxa Selic estiver superior à 8,5% a.a., a rentabilidade da poupança e de 0,5% + TR (taxa referencial).",
                                    "prepaidPaymentAccount": "NA"
                                }
                            ]
                        }
                    ]
                }
            ]
        }
    },
    "links": {
        "self": "https:///api.baninter.com/open-banking/products-services/v1/personal-accounts?page=2&page-size=1",
        "first": "https://api.banco.com.br/open-banking/products-services/v1/personal-accounts?page=1&page-size=1",
        "prev": "https://api.banco.com.br/open-banking/products-services/v1/personal-accounts?page=1&page-size=1",
        "last": "https://api.banco.com.br/open-banking/products-services/v1/personal-accounts?page=2&page-size=1"
    },
    "meta": {
        "totalRecords": 2,
        "totalPages": 2
    }
}