{
    "data": {
        "brand": {
            "name": "Banco Inter S.A.",
            "companies": [
                {
                    "cnpjNumber": "00416968000101",
                    "name": "Banco Inter S.A.",
                    "personalInvoiceFinancings": [
                        {
                            "type": "DESCONTO_DUPLICATAS",
                            "fees": {
                                "services": [
                                    {
                                        "name": "DESCONTO_DUPLICATAS",
                                        "code": "NA",
                                        "chargingTriggerInfo": "DESCONTO_DUPLICATAS",
                                        "prices": [
                                            {
                                                "interval": "1_FAIXA",
                                                "value": "250.40",
                                                "currency": "BRL",
                                                "customers": {
                                                    "rate": "0.1500"
                                                }
                                            },
                                            {
                                                "interval": "2_FAIXA",
                                                "value": "350.00",
                                                "currency": "BRL",
                                                "customers": {
                                                    "rate": "0.3500"
                                                }
                                            },
                                            {
                                                "interval": "3_FAIXA",
                                                "value": "520.00",
                                                "currency": "BRL",
                                                "customers": {
                                                    "rate": "0.2000"
                                                }
                                            },
                                            {
                                                "interval": "4_FAIXA",
                                                "value": "690.00",
                                                "currency": "BRL",
                                                "customers": {
                                                    "rate": "0.3000"
                                                }
                                            }
                                        ],
                                        "minimum": {
                                            "value": "250.40",
                                            "currency": "BRL"
                                        },
                                        "maximum": {
                                            "value": "690.00",
                                            "currency": "BRL"
                                        }
                                    }
                                ]
                            },
                            "interestRates": [
                                {
                                    "referentialRateIndexer": "PRE_FIXADO",
                                    "rate": "0.1500",
                                    "applications": [
                                        {
                                            "interval": "1_FAIXA",
                                            "indexer": {
                                                "rate": "0.0987"
                                            },
                                            "customers": {
                                                "rate": "0.1500"
                                            }
                                        },
                                        {
                                            "interval": "2_FAIXA",
                                            "indexer": {
                                                "rate": "0.1600"
                                            },
                                            "customers": {
                                                "rate": "0.3500"
                                            }
                                        },
                                        {
                                            "interval": "3_FAIXA",
                                            "indexer": {
                                                "rate": "0.3600"
                                            },
                                            "customers": {
                                                "rate": "0.2000"
                                            }
                                        },
                                        {
                                            "interval": "4_FAIXA",
                                            "indexer": {
                                                "rate": "0.5890"
                                            },
                                            "customers": {
                                                "rate": "0.3000"
                                            }
                                        }
                                    ],
                                    "minimumRate": "0.0456",
                                    "maximumRate": "0.6865"
                                }
                            ],
                            "requiredWarranties": [
                                "CESSAO_DIREITOS_CREDITORIOS"
                            ],
                            "termsConditions": "https://www.bancointer.com.br/"
                        }
                    ]
                }
            ]
        }
    },
    "links": {
        "self": "https://api.baninter.com/open-banking/products-services/v1/personal-invoice-financings?page=1&page-size=1",
        "first": "https://api.baninter.com/open-banking/products-services/v1/personal-invoice-financings?page=1&page-size=1",
        "next": "https://api.baninter.com/open-banking/products-services/v1/personal-invoice-financings?page=2&page-size=1",
        "last": "https://api.baninter.com/open-banking/products-services/v1/personal-invoice-financings?page=2&page-size=1"
    },
    "meta": {
        "totalRecords": 2,
        "totalPages": 2
    }
}