{
    "data": {
        "brand": {
            "name": "Banco Inter S.A.",
            "companies": [
                {
                    "cnpjNumber": "00416968000101",
                    "name": "Banco Inter S.A.",
                    "businessUnarrangedAccountOverdraft": [
                        {
                            "fees": {
                                "services": [
                                    {
                                        "name": "CONCESSAO_ADIANTAMENTO_DEPOSITANTE",
                                        "code": "ADIANT_DEPOSITANTE",
                                        "chargingTriggerInfo": "Levantamento de informações e avaliação de viabilidade e de riscos para a concessão de crédito em caráter emergencial para cobertura de saldo devedor em conta de depósitos à vista e de excesso sobre o limite previamente pactuado de cheque especial, cobrada no máximo uma vez nos últimos trinta dias",
                                        "prices": [
                                            {
                                                "interval": "1_FAIXA",
                                                "value": "3000.00",
                                                "currency": "BRL",
                                                "customers": {
                                                    "rate": "0.6500"
                                                }
                                            },
                                            {
                                                "interval": "2_FAIXA",
                                                "value": "6000.00",
                                                "currency": "BRL",
                                                "customers": {
                                                    "rate": "0.1500"
                                                }
                                            },
                                            {
                                                "interval": "3_FAIXA",
                                                "value": "12000.00",
                                                "currency": "BRL",
                                                "customers": {
                                                    "rate": "0.1500"
                                                }
                                            },
                                            {
                                                "interval": "4_FAIXA",
                                                "value": "24000.00",
                                                "currency": "BRL",
                                                "customers": {
                                                    "rate": "0.0500"
                                                }
                                            }
                                        ],
                                        "minimum": {
                                            "value": "2250.30",
                                            "currency": "BRL"
                                        },
                                        "maximum": {
                                            "value": "20800.00",
                                            "currency": "BRL"
                                        }
                                    }
                                ]
                            },
                            "interestRates": [
                                {
                                    "referentialRateIndexer": "SEM_INDEXADOR_TAXA",
                                    "rate": "0.70",
                                    "applications": [
                                        {
                                            "interval": "1_FAIXA",
                                            "indexer": {
                                                "rate": "0.6000"
                                            },
                                            "customers": {
                                                "rate": "0.8500"
                                            }
                                        },
                                        {
                                            "interval": "2_FAIXA",
                                            "indexer": {
                                                "rate": "0.6700"
                                            },
                                            "customers": {
                                                "rate": "0.0600"
                                            }
                                        },
                                        {
                                            "interval": "3_FAIXA",
                                            "indexer": {
                                                "rate": "0.7700"
                                            },
                                            "customers": {
                                                "rate": "0.0400"
                                            }
                                        },
                                        {
                                            "interval": "4_FAIXA",
                                            "indexer": {
                                                "rate": "0.8700"
                                            },
                                            "customers": {
                                                "rate": "0.0500"
                                            }
                                        }
                                    ],
                                    "minimumRate": "0.6000",
                                    "maximumRate": "0.8700"
                                }
                            ],
                            "termsConditions": "https://www.bancointer.com.br/empresas/emprestimos/antecipacao-de-recebiveis/"
                        }
                    ]
                }
            ]
        }
    },
    "links": {
        "self": "https:///api.baninter.com/open-banking/products-services/v1/business-unarranged-account-overdraft?page=1&page-size=10",
        "first": "https://api.baninter.com/open-banking/products-services/v1/business-unarranged-account-overdraft?page=1&page-size=10",
        "next": "https://api.baninter.com/open-banking/products-services/v1/business-unarranged-account-overdraft?page=2&page-size=10",
        "last": "https://api.baninter.com/open-banking/products-services/v1/business-unarranged-account-overdraft?page=10&page-size=10"
    },
    "meta": {
        "totalRecords": 100,
        "totalPages": 10
    }
}