{
    "data": [
        {
            "amount": 9848.2852,
            "partieCompeCode": "001",
            "partieBranchCode": "5429",
            "partieNumber": "12583783",
            "partieCheckDigit": "7",
            "partiePersonType": "PESSOA_JURIDICA",
            "partieCnpjCpf": "79317559000108",
            "completedAuthorisedPaymentType": "TRANSACAO_EFETIVADA",
            "creditDebitType": "CREDITO",
            "type": "CARTAO",
            "transactionCurrency": "BRL",
            "transactionDate": "2022-04-11",
            "transactionId": "44a6a6c7-d1d0-4b26-9e1e-5cc282c39d64",
            "transactionName": "44a6a6c7-d1d0-4b26-9e1e-5cc282c39d64"
        },
        {
            "amount": 7954.5537,
            "partieCompeCode": "001",
            "partieBranchCode": "5429",
            "partieNumber": "12583783",
            "partieCheckDigit": "7",
            "partiePersonType": "PESSOA_JURIDICA",
            "partieCnpjCpf": "79317559000108",
            "completedAuthorisedPaymentType": "TRANSACAO_EFETIVADA",
            "creditDebitType": "DEBITO",
            "type": "OUTROS",
            "transactionCurrency": "BRL",
            "transactionDate": "2021-11-08",
            "transactionId": "6557ca68-8d01-4044-af69-3c5056dbb1df",
            "transactionName": "6557ca68-8d01-4044-af69-3c5056dbb1df"
        },
        {
            "amount": 6964.2872,
            "partieCompeCode": "001",
            "partieBranchCode": "5429",
            "partieNumber": "12583783",
            "partieCheckDigit": "7",
            "partiePersonType": "PESSOA_JURIDICA",
            "partieCnpjCpf": "79317559000108",
            "completedAuthorisedPaymentType": "TRANSACAO_EFETIVADA",
            "creditDebitType": "CREDITO",
            "type": "RENDIMENTO_APLIC_FINANCEIRA",
            "transactionCurrency": "BRL",
            "transactionDate": "2022-03-23",
            "transactionId": "398e6046-9c4d-405d-84fa-3350e627fd08",
            "transactionName": "398e6046-9c4d-405d-84fa-3350e627fd08"
        },
        {
            "amount": 6543.8996,
            "partieCompeCode": "001",
            "partieBranchCode": "5429",
            "partieNumber": "12583783",
            "partieCheckDigit": "7",
            "partiePersonType": "PESSOA_JURIDICA",
            "partieCnpjCpf": "79317559000108",
            "completedAuthorisedPaymentType": "TRANSACAO_EFETIVADA",
            "creditDebitType": "DEBITO",
            "type": "CONVENIO_ARRECADACAO",
            "transactionCurrency": "BRL",
            "transactionDate": "2022-01-26",
            "transactionId": "6a6d5407-373a-45c9-b070-6bb5aa107720",
            "transactionName": "6a6d5407-373a-45c9-b070-6bb5aa107720"
        },
        {
            "amount": 8999.7369,
            "partieCompeCode": "001",
            "partieBranchCode": "5429",
            "partieNumber": "12583783",
            "partieCheckDigit": "7",
            "partiePersonType": "PESSOA_JURIDICA",
            "partieCnpjCpf": "79317559000108",
            "completedAuthorisedPaymentType": "TRANSACAO_EFETIVADA",
            "creditDebitType": "CREDITO",
            "type": "RENDIMENTO_APLIC_FINANCEIRA",
            "transactionCurrency": "BRL",
            "transactionDate": "2022-03-15",
            "transactionId": "496daa88-d689-47ab-ae60-7a69f3eeacb2",
            "transactionName": "496daa88-d689-47ab-ae60-7a69f3eeacb2"
        },
        {
            "amount": 5714.2545,
            "partieCompeCode": "001",
            "partieBranchCode": "5429",
            "partieNumber": "12583783",
            "partieCheckDigit": "7",
            "partiePersonType": "PESSOA_JURIDICA",
            "partieCnpjCpf": "79317559000108",
            "completedAuthorisedPaymentType": "TRANSACAO_EFETIVADA",
            "creditDebitType": "DEBITO",
            "type": "BOLETO",
            "transactionCurrency": "BRL",
            "transactionDate": "2022-01-19",
            "transactionId": "f57ba2f6-4450-44ce-852f-d60123a5f3a0",
            "transactionName": "f57ba2f6-4450-44ce-852f-d60123a5f3a0"
        },
        {
            "amount": 9996.5963,
            "partieCompeCode": "001",
            "partieBranchCode": "5429",
            "partieNumber": "12583783",
            "partieCheckDigit": "7",
            "partiePersonType": "PESSOA_JURIDICA",
            "partieCnpjCpf": "79317559000108",
            "completedAuthorisedPaymentType": "TRANSACAO_EFETIVADA",
            "creditDebitType": "DEBITO",
            "type": "FOLHA_PAGAMENTO",
            "transactionCurrency": "BRL",
            "transactionDate": "2021-11-16",
            "transactionId": "2d1ba8e9-93b4-49b6-80b2-3705a70e71d2",
            "transactionName": "2d1ba8e9-93b4-49b6-80b2-3705a70e71d2"
        },
        {
            "amount": 9393.0721,
            "partieCompeCode": "001",
            "partieBranchCode": "5429",
            "partieNumber": "12583783",
            "partieCheckDigit": "7",
            "partiePersonType": "PESSOA_JURIDICA",
            "partieCnpjCpf": "79317559000108",
            "completedAuthorisedPaymentType": "TRANSACAO_EFETIVADA",
            "creditDebitType": "DEBITO",
            "type": "CARTAO",
            "transactionCurrency": "BRL",
            "transactionDate": "2021-11-01",
            "transactionId": "7afb2cb2-f312-4023-97aa-06b9a29a6700",
            "transactionName": "7afb2cb2-f312-4023-97aa-06b9a29a6700"
        },
        {
            "amount": 8702.9785,
            "partieCompeCode": "001",
            "partieBranchCode": "5429",
            "partieNumber": "12583783",
            "partieCheckDigit": "7",
            "partiePersonType": "PESSOA_JURIDICA",
            "partieCnpjCpf": "79317559000108",
            "completedAuthorisedPaymentType": "TRANSACAO_EFETIVADA",
            "creditDebitType": "CREDITO",
            "type": "DEPOSITO",
            "transactionCurrency": "BRL",
            "transactionDate": "2022-01-04",
            "transactionId": "45be173c-e03e-4d31-89da-f867499aadb9",
            "transactionName": "45be173c-e03e-4d31-89da-f867499aadb9"
        }
    ],
    "links": {
        "first": "https://opendata.api.bb.com.bropen-banking/accounts/v1/accounts/0e49a20b-33c3-42ac-876c-567c78673abd/transactions?page=1&page-size=10",
        "last": "https://opendata.api.bb.com.bropen-banking/accounts/v1/accounts/0e49a20b-33c3-42ac-876c-567c78673abd/transactions?page=6&page-size=4",
        "next": "https://opendata.api.bb.com.bropen-banking/accounts/v1/accounts/0e49a20b-33c3-42ac-876c-567c78673abd/transactions?page=6&page-size=10",
        "prev": "https://opendata.api.bb.com.bropen-banking/accounts/v1/accounts/0e49a20b-33c3-42ac-876c-567c78673abd/transactions?page=4&page-size=10",
        "self": "https://opendata.api.bb.com.bropen-banking/accounts/v1/accounts/0e49a20b-33c3-42ac-876c-567c78673abd/transactions?page=5&page-size=10"
    },
    "meta": {
        "totalRecords": 10,
        "totalPages": 6,
        "requestDateTime": "2022-03-28T00:00:00Z"
    }
}